{
	"env": {
		"name": "local",
		"desc": "local development"
	},
	"module": {
		"server": {
			"name": "server",
			"server": {
				"debug": {
					"port": 8010,
					"host": "localhost"
				},
				"docker": {
					"port": 8010,
					"host": "pig.dam.server"
				}
			}
		},
		"factory": {
			"name": "factory",
			"server": {
				"debug": {
					"port": 8020,
					"host": "localhost"
				},
				"docker": {
					"port": 8020,
					"host": "pig.dam.factory"
				}
			}
		},
		"mongo": {
			"mode": "server",
			"name": "mongo",
			"useLocalConfiguration": true,
			"database": {
				"urn:db:doc:pig": {
					"name": "pig-local"
				}
			},
			"server": {
				"debug": {
					"port": 27017,
					"host": "localhost"
				},
				"docker": {
					"port": 27017,
					"host": "pig.dam.mongo"
				}
			},
			"debug": {
				"enabled": true,
				"verbose": true
			},
			"log": {
				"level": "debug",
				"transports": [
					{
						"type": "console"
					},
					{
						"type": "file",
						"overrides": {
							"filename": "local.log"
						}
					}
				]
			}
		},
		"search": {
			"name": "search",
			"server": {
				"debug": {
					"port": 9200,
					"host": "localhost"
				},
				"docker": {
					"port": 9200,
					"host": "pig.dam.search"
				}
			},
			"indices": {
				"metadata": {
					"id": "<project.id>",
					"type": "metadata"
				}
			}
		},
		"settings": {
			"name": "settings",
			"server": {
				"debug": {
					"port": 8000,
					"host": "localhost"
				},
				"docker": {
					"port": 8000,
					"host": "pig.dam.settings"
				}
			}
		}
	}
}
